<?xml version="1.0" encoding="UTF-8"?>
<!DOCTYPE X3D PUBLIC "ISO//Web3D//DTD X3D 3.0//EN" "http://www.web3d.org/specifications/x3d-3.0.dtd">
<X3D version="3.0" profile="Immersive" xmlns:xsd="http://www.w3.org/2001/XMLSchema-instance" xsd:noNamespaceSchemaLocation="http://www.web3d.org/specifications/x3d-3.0.xsd">
	<head>
		<meta name="filename" content="planet.x3d" />
		<meta name="generator" content="Blender 2.78 (sub 0)" />
	</head>
	<Scene>
		<NavigationInfo headlight="false"
		                visibilityLimit="0.0"
		                type='"EXAMINE", "ANY"'
		                avatarSize="0.25, 1.75, 0.75"
		                />
		<Background DEF="WO_World"
		            groundColor="0.051 0.051 0.051"
		            skyColor="0.051 0.051 0.051"
		            />
		<Transform DEF="planet_n_TRANSFORM"
		           translation="0.156410 0.121225 -0.204702"
		           scale="1.000000 1.000000 1.000000"
		           rotation="0.000000 1.000000 -0.000000 3.141593"
		           >
			<Transform DEF="planet_n_ifs_TRANSFORM"
			           translation="0.000000 0.000000 -0.000000"
			           scale="1.000000 1.000000 1.000000"
			           rotation="1.000000 0.000000 0.000000 0.000000"
			           >
				<Group DEF="group_ME_planet_n">
					<Shape>
						<Appearance>
							<Material DEF="MA_Mat"
							          diffuseColor="0.640 0.640 0.640"
							          specularColor="0.401 0.401 0.401"
							          emissiveColor="0.000 0.000 0.000"
							          ambientIntensity="0.333"
							          shininess="0.094"
							          transparency="0.0"
							          />
						</Appearance>
						<IndexedFaceSet solid="true"
						                creaseAngle="0.5236"
						                texCoordIndex="0 1 2 -1 3 4 5 -1 6 7 8 -1 9 10 11 -1 12 13 14 -1 15 16 17 -1 18 19 20 -1 21 22 23 -1 24 25 26 -1 27 28 29 -1 30 31 32 -1 33 34 35 -1 36 37 38 -1 39 40 41 -1 42 43 44 -1 45 46 47 -1 48 49 50 -1 51 52 53 -1 54 55 56 -1 57 58 59 -1 60 61 62 -1 63 64 65 -1 66 67 68 -1 69 70 71 -1 72 73 74 -1 75 76 77 -1 78 79 80 -1 81 82 83 -1 84 85 86 -1 87 88 89 -1 90 91 92 -1 93 94 95 -1 96 97 98 -1 99 100 101 -1 102 103 104 -1 105 106 107 -1 108 109 110 -1 111 112 113 -1 114 115 116 -1 117 118 119 -1 120 121 122 -1 123 124 125 -1 126 127 128 -1 129 130 131 -1 132 133 134 -1 135 136 137 -1 138 139 140 -1 141 142 143 -1 144 145 146 -1 147 148 149 -1 150 151 152 -1 153 154 155 -1 156 157 158 -1 159 160 161 -1 162 163 164 -1 165 166 167 -1 168 169 170 -1 171 172 173 -1 174 175 176 -1 177 178 179 -1 180 181 182 -1 183 184 185 -1 186 187 188 -1 189 190 191 -1 192 193 194 -1 195 196 197 -1 198 199 200 -1 201 202 203 -1 204 205 206 -1 207 208 209 -1 210 211 212 -1 213 214 215 -1 216 217 218 -1 219 220 221 -1 222 223 224 -1 225 226 227 -1 228 229 230 -1 231 232 233 -1 234 235 236 -1 237 238 239 -1 240 241 242 -1 243 244 245 -1 246 247 248 -1 249 250 251 -1 252 253 254 -1 255 256 257 -1 258 259 260 -1 261 262 263 -1 264 265 266 -1 267 268 269 -1 270 271 272 -1 273 274 275 -1 276 277 278 -1 279 280 281 -1 282 283 284 -1 285 286 287 -1 288 289 290 -1 291 292 293 -1 294 295 296 -1 297 298 299 -1 300 301 302 -1 303 304 305 -1 306 307 308 -1 309 310 311 -1 312 313 314 -1 315 316 317 -1 318 319 320 -1 321 322 323 -1 324 325 326 -1 327 328 329 -1 330 331 332 -1 333 334 335 -1 336 337 338 -1 339 340 341 -1 342 343 344 -1 345 346 347 -1 348 349 350 -1 351 352 353 -1 354 355 356 -1 357 358 359 -1 360 361 362 -1 363 364 365 -1 366 367 368 -1 369 370 371 -1 372 373 374 -1 375 376 377 -1 378 379 380 -1 381 382 383 -1 384 385 386 -1 387 388 389 -1 390 391 392 -1 393 394 395 -1 396 397 398 -1 399 400 401 -1 402 403 404 -1 405 406 407 -1 408 409 410 -1 411 412 413 -1 414 415 416 -1 417 418 419 -1 420 421 422 -1 423 424 425 -1 426 427 428 -1 429 430 431 -1 432 433 434 -1 435 436 437 -1 438 439 440 -1 441 442 443 -1 444 445 446 -1 447 448 449 -1 450 451 452 -1 453 454 455 -1 456 457 458 -1 459 460 461 -1 462 463 464 -1 465 466 467 -1 468 469 470 -1 471 472 473 -1 474 475 476 -1 477 478 479 -1 480 481 482 -1 483 484 485 -1 486 487 488 -1 489 490 491 -1 492 493 494 -1 495 496 497 -1 498 499 500 -1 501 502 503 -1 504 505 506 -1 507 508 509 -1 510 511 512 -1 513 514 515 -1 516 517 518 -1 519 520 521 -1 522 523 524 -1 525 526 527 -1 528 529 530 -1 531 532 533 -1 534 535 536 -1 537 538 539 -1 540 541 542 -1 543 544 545 -1 546 547 548 -1 549 550 551 -1 552 553 554 -1 555 556 557 -1 558 559 560 -1 561 562 563 -1 564 565 566 -1 567 568 569 -1 570 571 572 -1 573 574 575 -1 576 577 578 -1 579 580 581 -1 582 583 584 -1 585 586 587 -1 588 589 590 -1 591 592 593 -1 594 595 596 -1 597 598 599 -1 600 601 602 -1 603 604 605 -1 606 607 608 -1 609 610 611 -1 612 613 614 -1 615 616 617 -1 618 619 620 -1 621 622 623 -1 624 625 626 -1 627 628 629 -1 630 631 632 -1 633 634 635 -1 636 637 638 -1 639 640 641 -1 642 643 644 -1 645 646 647 -1 648 649 650 -1 651 652 653 -1 654 655 656 -1 657 658 659 -1 660 661 662 -1 663 664 665 -1 666 667 668 -1 669 670 671 -1 672 673 674 -1 675 676 677 -1 678 679 680 -1 681 682 683 -1 684 685 686 -1 687 688 689 -1 690 691 692 -1 693 694 695 -1 696 697 698 -1 699 700 701 -1 702 703 704 -1 705 706 707 -1 708 709 710 -1 711 712 713 -1 714 715 716 -1 717 718 719 -1 720 721 722 -1 723 724 725 -1 726 727 728 -1 729 730 731 -1 732 733 734 -1 735 736 737 -1 738 739 740 -1 741 742 743 -1 744 745 746 -1 747 748 749 -1 750 751 752 -1 753 754 755 -1 756 757 758 -1 759 760 761 -1 762 763 764 -1 765 766 767 -1 768 769 770 -1 771 772 773 -1 774 775 776 -1 777 778 779 -1 780 781 782 -1 783 784 785 -1 786 787 788 -1 789 790 791 -1 792 793 794 -1 795 796 797 -1 798 799 800 -1 801 802 803 -1 804 805 806 -1 807 808 809 -1 810 811 812 -1 813 814 815 -1 816 817 818 -1 819 820 821 -1 822 823 824 -1 825 826 827 -1 828 829 830 -1 831 832 833 -1 834 835 836 -1 837 838 839 -1 840 841 842 -1 843 844 845 -1 846 847 848 -1 849 850 851 -1 852 853 854 -1 855 856 857 -1 858 859 860 -1 861 862 863 -1 864 865 866 -1 867 868 869 -1 870 871 872 -1 873 874 875 -1 876 877 878 -1 879 880 881 -1 882 883 884 -1 885 886 887 -1 888 889 890 -1 891 892 893 -1 894 895 896 -1 897 898 899 -1 900 901 902 -1 903 904 905 -1 906 907 908 -1 909 910 911 -1 912 913 914 -1 915 916 917 -1 918 919 920 -1 921 922 923 -1 924 925 926 -1 927 928 929 -1 930 931 932 -1 933 934 935 -1 936 937 938 -1 939 940 941 -1 942 943 944 -1 945 946 947 -1 948 949 950 -1 951 952 953 -1 954 955 956 -1 957 958 959 -1 960 961 962 -1 963 964 965 -1 966 967 968 -1 969 970 971 -1 972 973 974 -1 975 976 977 -1 978 979 980 -1 981 982 983 -1 984 985 986 -1 987 988 989 -1 990 991 992 -1 993 994 995 -1 996 997 998 -1 999 1000 1001 -1 1002 1003 1004 -1 1005 1006 1007 -1 1008 1009 1010 -1 1011 1012 1013 -1 1014 1015 1016 -1 1017 1018 1019 -1 1020 1021 1022 -1 1023 1024 1025 -1 1026 1027 1028 -1 1029 1030 1031 -1 1032 1033 1034 -1 1035 1036 1037 -1 1038 1039 1040 -1 1041 1042 1043 -1 1044 1045 1046 -1 1047 1048 1049 -1 1050 1051 1052 -1 1053 1054 1055 -1 1056 1057 1058 -1 1059 1060 1061 -1 1062 1063 1064 -1 1065 1066 1067 -1 1068 1069 1070 -1 1071 1072 1073 -1 1074 1075 1076 -1 1077 1078 1079 -1 1080 1081 1082 -1 1083 1084 1085 -1 1086 1087 1088 -1 1089 1090 1091 -1 1092 1093 1094 -1 1095 1096 1097 -1 1098 1099 1100 -1 1101 1102 1103 -1 1104 1105 1106 -1 1107 1108 1109 -1 1110 1111 1112 -1 1113 1114 1115 -1 1116 1117 1118 -1 1119 1120 1121 -1 1122 1123 1124 -1 1125 1126 1127 -1 1128 1129 1130 -1 1131 1132 1133 -1 1134 1135 1136 -1 1137 1138 1139 -1 1140 1141 1142 -1 1143 1144 1145 -1 1146 1147 1148 -1 1149 1150 1151 -1 1152 1153 1154 -1 1155 1156 1157 -1 1158 1159 1160 -1 1161 1162 1163 -1 1164 1165 1166 -1 1167 1168 1169 -1 1170 1171 1172 -1 1173 1174 1175 -1 1176 1177 1178 -1 1179 1180 1181 -1 1182 1183 1184 -1 1185 1186 1187 -1 1188 1189 1190 -1 1191 1192 1193 -1 1194 1195 1196 -1 1197 1198 1199 -1 1200 1201 1202 -1 1203 1204 1205 -1 1206 1207 1208 -1 1209 1210 1211 -1 1212 1213 1214 -1 1215 1216 1217 -1 1218 1219 1220 -1 1221 1222 1223 -1 1224 1225 1226 -1 1227 1228 1229 -1 1230 1231 1232 -1 1233 1234 1235 -1 1236 1237 1238 -1 1239 1240 1241 -1 1242 1243 1244 -1 1245 1246 1247 -1 1248 1249 1250 -1 1251 1252 1253 -1 1254 1255 1256 -1 1257 1258 1259 -1 1260 1261 1262 -1 1263 1264 1265 -1 1266 1267 1268 -1 1269 1270 1271 -1 1272 1273 1274 -1 1275 1276 1277 -1 1278 1279 1280 -1 1281 1282 1283 -1 1284 1285 1286 -1 1287 1288 1289 -1 1290 1291 1292 -1 1293 1294 1295 -1 1296 1297 1298 -1 1299 1300 1301 -1 1302 1303 1304 -1 1305 1306 1307 -1 1308 1309 1310 -1 1311 1312 1313 -1 1314 1315 1316 -1 1317 1318 1319 -1 1320 1321 1322 -1 1323 1324 1325 -1 1326 1327 1328 -1 1329 1330 1331 -1 1332 1333 1334 -1 1335 1336 1337 -1 1338 1339 1340 -1 1341 1342 1343 -1 1344 1345 1346 -1 1347 1348 1349 -1 1350 1351 1352 -1 1353 1354 1355 -1 1356 1357 1358 -1 1359 1360 1361 -1 1362 1363 1364 -1 1365 1366 1367 -1 1368 1369 1370 -1 1371 1372 1373 -1 1374 1375 1376 -1 1377 1378 1379 -1 1380 1381 1382 -1 1383 1384 1385 -1 1386 1387 1388 -1 1389 1390 1391 -1 1392 1393 1394 -1 1395 1396 1397 -1 1398 1399 1400 -1 1401 1402 1403 -1 1404 1405 1406 -1 1407 1408 1409 -1 1410 1411 1412 -1 1413 1414 1415 -1 1416 1417 1418 -1 1419 1420 1421 -1 1422 1423 1424 -1 1425 1426 1427 -1 1428 1429 1430 -1 1431 1432 1433 -1 1434 1435 1436 -1 1437 1438 1439 -1 1440 1441 1442 -1 1443 1444 1445 -1 1446 1447 1448 -1 1449 1450 1451 -1 1452 1453 1454 -1 1455 1456 1457 -1 1458 1459 1460 -1 1461 1462 1463 -1 1464 1465 1466 -1 1467 1468 1469 -1 1470 1471 1472 -1 1473 1474 1475 -1 1476 1477 1478 -1 1479 1480 1481 -1 1482 1483 1484 -1 1485 1486 1487 -1 1488 1489 1490 -1 1491 1492 1493 -1 1494 1495 1496 -1 1497 1498 1499 -1 1500 1501 1502 -1 1503 1504 1505 -1 1506 1507 1508 -1 1509 1510 1511 -1 1512 1513 1514 -1 1515 1516 1517 -1 1518 1519 1520 -1 1521 1522 1523 -1 1524 1525 1526 -1 1527 1528 1529 -1 1530 1531 1532 -1 1533 1534 1535 -1 1536 1537 1538 -1 1539 1540 1541 -1 1542 1543 1544 -1 1545 1546 1547 -1 1548 1549 1550 -1 1551 1552 1553 -1 1554 1555 1556 -1 1557 1558 1559 -1 1560 1561 1562 -1 1563 1564 1565 -1 1566 1567 1568 -1 1569 1570 1571 -1 1572 1573 1574 -1 1575 1576 1577 -1 1578 1579 1580 -1 1581 1582 1583 -1 "
						                coordIndex="0 1 2 -1 3 0 4 -1 5 3 4 -1 6 5 7 -1 8 6 7 -1 9 8 10 -1 11 9 10 -1 12 11 13 -1 14 12 13 -1 15 14 16 -1 17 15 16 -1 18 17 19 -1 20 18 19 -1 21 20 22 -1 23 21 22 -1 24 23 25 -1 26 24 25 -1 27 26 28 -1 29 27 28 -1 30 29 31 -1 32 30 31 -1 33 32 34 -1 35 33 34 -1 1 35 2 -1 36 37 1 -1 38 36 3 -1 39 3 40 -1 6 39 40 -1 41 42 6 -1 43 41 9 -1 44 43 9 -1 45 44 12 -1 46 12 47 -1 15 46 47 -1 48 49 15 -1 50 48 18 -1 51 50 18 -1 52 51 21 -1 53 21 54 -1 24 53 54 -1 55 56 24 -1 57 55 27 -1 58 57 27 -1 59 58 30 -1 60 30 61 -1 33 60 61 -1 62 63 33 -1 37 62 1 -1 64 37 65 -1 66 65 38 -1 67 38 39 -1 42 67 39 -1 68 69 42 -1 43 70 68 -1 71 43 72 -1 73 72 45 -1 74 45 46 -1 49 74 46 -1 75 76 49 -1 50 77 75 -1 78 50 79 -1 80 79 52 -1 81 52 53 -1 56 81 53 -1 82 83 56 -1 57 84 82 -1 85 57 86 -1 87 86 59 -1 88 59 60 -1 89 60 63 -1 90 89 63 -1 37 91 90 -1 64 92 93 -1 66 94 64 -1 67 95 66 -1 96 67 69 -1 97 69 70 -1 98 70 99 -1 71 98 99 -1 73 100 71 -1 74 101 73 -1 102 74 76 -1 103 76 77 -1 104 77 105 -1 78 104 105 -1 106 78 80 -1 81 106 80 -1 107 81 83 -1 108 83 84 -1 109 84 110 -1 85 109 110 -1 87 111 85 -1 88 112 87 -1 89 113 88 -1 91 114 89 -1 92 91 93 -1 115 92 94 -1 116 94 95 -1 117 95 118 -1 96 117 118 -1 97 119 96 -1 120 97 98 -1 100 120 98 -1 121 100 101 -1 122 101 123 -1 102 122 123 -1 103 124 102 -1 104 125 103 -1 126 104 127 -1 128 127 106 -1 129 106 130 -1 107 129 130 -1 108 131 107 -1 109 132 108 -1 133 109 111 -1 134 111 112 -1 135 112 113 -1 136 113 114 -1 137 114 138 -1 92 137 138 -1 139 140 115 -1 141 115 116 -1 117 141 116 -1 142 117 119 -1 143 119 144 -1 120 143 144 -1 145 120 146 -1 121 145 146 -1 122 147 121 -1 148 122 124 -1 149 124 125 -1 150 125 151 -1 126 150 151 -1 128 152 126 -1 153 128 129 -1 154 129 131 -1 155 131 132 -1 156 132 157 -1 158 157 133 -1 134 158 133 -1 135 159 134 -1 136 160 135 -1 137 161 136 -1 162 137 140 -1 139 163 162 -1 164 139 141 -1 165 141 166 -1 167 166 142 -1 143 167 142 -1 168 169 143 -1 170 168 145 -1 171 145 147 -1 172 171 147 -1 148 173 172 -1 149 174 148 -1 150 175 149 -1 176 150 152 -1 177 176 152 -1 178 177 153 -1 154 178 153 -1 155 179 154 -1 156 180 155 -1 181 156 158 -1 182 158 159 -1 183 159 160 -1 161 183 160 -1 184 161 185 -1 162 184 185 -1 186 163 187 -1 188 187 164 -1 165 188 164 -1 189 165 167 -1 190 167 169 -1 191 169 192 -1 170 191 192 -1 171 193 170 -1 194 171 173 -1 195 173 174 -1 196 174 175 -1 197 175 198 -1 176 197 198 -1 199 176 200 -1 201 200 178 -1 202 178 179 -1 203 179 180 -1 204 180 205 -1 181 204 205 -1 182 206 181 -1 207 182 183 -1 208 183 209 -1 184 208 209 -1 210 184 163 -1 186 211 210 -1 188 212 186 -1 213 188 214 -1 189 213 214 -1 215 189 190 -1 191 215 190 -1 216 191 193 -1 217 216 193 -1 218 217 194 -1 195 218 194 -1 219 195 196 -1 197 219 196 -1 220 197 221 -1 199 220 221 -1 201 222 199 -1 223 201 202 -1 203 223 202 -1 204 224 203 -1 225 204 206 -1 226 206 227 -1 207 226 227 -1 208 228 207 -1 229 208 230 -1 210 229 230 -1 231 211 212 -1 232 231 212 -1 233 232 213 -1 234 213 235 -1 215 234 235 -1 236 237 215 -1 238 236 216 -1 239 216 240 -1 218 239 240 -1 241 242 218 -1 243 241 219 -1 244 243 219 -1 245 244 220 -1 222 245 220 -1 246 222 247 -1 248 247 223 -1 249 223 224 -1 250 249 224 -1 251 250 225 -1 226 251 225 -1 252 226 228 -1 253 252 228 -1 254 253 229 -1 211 254 229 -1 0 2 255 -1 256 257 231 -1 4 0 255 -1 256 231 258 -1 5 4 255 -1 256 258 233 -1 7 5 255 -1 256 233 234 -1 8 7 255 -1 256 234 237 -1 10 8 255 -1 256 237 259 -1 11 10 255 -1 256 259 238 -1 13 11 255 -1 256 238 239 -1 14 13 255 -1 256 239 242 -1 16 14 255 -1 256 242 260 -1 17 16 255 -1 256 260 243 -1 19 17 255 -1 256 243 261 -1 20 19 255 -1 256 261 245 -1 22 20 255 -1 256 245 262 -1 23 22 255 -1 256 262 246 -1 25 23 255 -1 256 246 248 -1 26 25 255 -1 256 248 249 -1 28 26 255 -1 256 249 263 -1 29 28 255 -1 256 263 251 -1 31 29 255 -1 256 251 264 -1 32 31 255 -1 256 264 252 -1 34 32 255 -1 256 252 265 -1 35 34 255 -1 256 265 254 -1 2 35 255 -1 256 254 257 -1 0 36 1 -1 3 36 0 -1 5 40 3 -1 6 40 5 -1 8 41 6 -1 9 41 8 -1 11 44 9 -1 12 44 11 -1 14 47 12 -1 15 47 14 -1 17 48 15 -1 18 48 17 -1 20 51 18 -1 21 51 20 -1 23 54 21 -1 24 54 23 -1 26 55 24 -1 27 55 26 -1 29 58 27 -1 30 58 29 -1 32 61 30 -1 33 61 32 -1 35 62 33 -1 1 62 35 -1 36 65 37 -1 38 65 36 -1 39 38 3 -1 6 42 39 -1 41 68 42 -1 43 68 41 -1 44 72 43 -1 45 72 44 -1 46 45 12 -1 15 49 46 -1 48 75 49 -1 50 75 48 -1 51 79 50 -1 52 79 51 -1 53 52 21 -1 24 56 53 -1 55 82 56 -1 57 82 55 -1 58 86 57 -1 59 86 58 -1 60 59 30 -1 33 63 60 -1 62 90 63 -1 37 90 62 -1 64 93 37 -1 66 64 65 -1 67 66 38 -1 42 69 67 -1 68 70 69 -1 43 99 70 -1 71 99 43 -1 73 71 72 -1 74 73 45 -1 49 76 74 -1 75 77 76 -1 50 105 77 -1 78 105 50 -1 80 78 79 -1 81 80 52 -1 56 83 81 -1 82 84 83 -1 57 110 84 -1 85 110 57 -1 87 85 86 -1 88 87 59 -1 89 88 60 -1 90 91 89 -1 37 93 91 -1 64 94 92 -1 66 95 94 -1 67 118 95 -1 96 118 67 -1 97 96 69 -1 98 97 70 -1 71 100 98 -1 73 101 100 -1 74 123 101 -1 102 123 74 -1 103 102 76 -1 104 103 77 -1 78 127 104 -1 106 127 78 -1 81 130 106 -1 107 130 81 -1 108 107 83 -1 109 108 84 -1 85 111 109 -1 87 112 111 -1 88 113 112 -1 89 114 113 -1 91 138 114 -1 92 138 91 -1 115 140 92 -1 116 115 94 -1 117 116 95 -1 96 119 117 -1 97 144 119 -1 120 144 97 -1 100 146 120 -1 121 146 100 -1 122 121 101 -1 102 124 122 -1 103 125 124 -1 104 151 125 -1 126 151 104 -1 128 126 127 -1 129 128 106 -1 107 131 129 -1 108 132 131 -1 109 157 132 -1 133 157 109 -1 134 133 111 -1 135 134 112 -1 136 135 113 -1 137 136 114 -1 92 140 137 -1 139 162 140 -1 141 139 115 -1 117 166 141 -1 142 166 117 -1 143 142 119 -1 120 168 143 -1 145 168 120 -1 121 147 145 -1 122 172 147 -1 148 172 122 -1 149 148 124 -1 150 149 125 -1 126 152 150 -1 128 177 152 -1 153 177 128 -1 154 153 129 -1 155 154 131 -1 156 155 132 -1 158 156 157 -1 134 159 158 -1 135 160 159 -1 136 161 160 -1 137 185 161 -1 162 185 137 -1 139 187 163 -1 164 187 139 -1 165 164 141 -1 167 165 166 -1 143 169 167 -1 168 192 169 -1 170 192 168 -1 171 170 145 -1 172 173 171 -1 148 174 173 -1 149 175 174 -1 150 198 175 -1 176 198 150 -1 177 200 176 -1 178 200 177 -1 154 179 178 -1 155 180 179 -1 156 205 180 -1 181 205 156 -1 182 181 158 -1 183 182 159 -1 161 209 183 -1 184 209 161 -1 162 163 184 -1 186 210 163 -1 188 186 187 -1 165 214 188 -1 189 214 165 -1 190 189 167 -1 191 190 169 -1 170 193 191 -1 171 217 193 -1 194 217 171 -1 195 194 173 -1 196 195 174 -1 197 196 175 -1 176 221 197 -1 199 221 176 -1 201 199 200 -1 202 201 178 -1 203 202 179 -1 204 203 180 -1 181 206 204 -1 182 227 206 -1 207 227 182 -1 208 207 183 -1 184 230 208 -1 210 230 184 -1 186 212 211 -1 188 232 212 -1 213 232 188 -1 189 235 213 -1 215 235 189 -1 191 236 215 -1 216 236 191 -1 217 240 216 -1 218 240 217 -1 195 241 218 -1 219 241 195 -1 197 244 219 -1 220 244 197 -1 199 222 220 -1 201 247 222 -1 223 247 201 -1 203 224 223 -1 204 250 224 -1 225 250 204 -1 226 225 206 -1 207 228 226 -1 208 253 228 -1 229 253 208 -1 210 211 229 -1 231 257 211 -1 232 258 231 -1 233 258 232 -1 234 233 213 -1 215 237 234 -1 236 259 237 -1 238 259 236 -1 239 238 216 -1 218 242 239 -1 241 260 242 -1 243 260 241 -1 244 261 243 -1 245 261 244 -1 222 262 245 -1 246 262 222 -1 248 246 247 -1 249 248 223 -1 250 263 249 -1 251 263 250 -1 226 264 251 -1 252 264 226 -1 253 265 252 -1 254 265 253 -1 211 257 254 -1 "
						                >
							<Coordinate DEF="coords_ME_planet_n"
							            point="0.191585 -0.722926 -0.057698 0.406916 -0.636879 -0.000000 0.199181 -0.722926 -0.000000 0.349218 -0.636879 -0.215332 0.169314 -0.722926 -0.111464 0.133887 -0.722926 -0.157634 0.191585 -0.636879 -0.372965 0.087717 -0.722926 -0.193061 0.033951 -0.722926 -0.215332 -0.023747 -0.636879 -0.430663 -0.023747 -0.722926 -0.222928 -0.081445 -0.722926 -0.215332 -0.239079 -0.636879 -0.372965 -0.135211 -0.722926 -0.193061 -0.181381 -0.722926 -0.157634 -0.396712 -0.636879 -0.215332 -0.216808 -0.722926 -0.111464 -0.239079 -0.722926 -0.057698 -0.454410 -0.636879 -0.000000 -0.246675 -0.722926 -0.000000 -0.239079 -0.722926 0.057698 -0.396712 -0.636879 0.215332 -0.216808 -0.722926 0.111464 -0.181381 -0.722926 0.157634 -0.239079 -0.636879 0.372965 -0.135211 -0.722926 0.193061 -0.081445 -0.722926 0.215332 -0.023747 -0.636879 0.430663 -0.023747 -0.722926 0.222928 0.033951 -0.722926 0.215332 0.191585 -0.636879 0.372965 0.087717 -0.722926 0.193061 0.133887 -0.722926 0.157634 0.349218 -0.636879 0.215332 0.169314 -0.722926 0.111464 0.191585 -0.722926 0.057698 0.392242 -0.636879 -0.111464 0.585303 -0.499998 -0.000000 0.503706 -0.499998 -0.304525 0.406916 -0.499998 -0.430663 0.280778 -0.636879 -0.304525 0.087717 -0.636879 -0.415989 0.280778 -0.499998 -0.527453 -0.023747 -0.499998 -0.609050 -0.135211 -0.636879 -0.415989 -0.328272 -0.499998 -0.527453 -0.454410 -0.499998 -0.430663 -0.328272 -0.636879 -0.304525 -0.439736 -0.636879 -0.111464 -0.551200 -0.499998 -0.304525 -0.632797 -0.499998 -0.000000 -0.439736 -0.636879 0.111464 -0.551200 -0.499998 0.304525 -0.454410 -0.499998 0.430663 -0.328272 -0.636879 0.304525 -0.135211 -0.636879 0.415989 -0.328272 -0.499998 0.527453 -0.023747 -0.499998 0.609050 0.087717 -0.636879 0.415989 0.280778 -0.499998 0.527453 0.406916 -0.499998 0.430663 0.280778 -0.636879 0.304525 0.392242 -0.636879 0.111464 0.503706 -0.499998 0.304525 0.696767 -0.321611 -0.193061 0.564550 -0.499998 -0.157634 0.622248 -0.321611 -0.372965 0.503706 -0.321611 -0.527453 0.133887 -0.499998 -0.588297 0.349218 -0.321611 -0.645995 0.169314 -0.321611 -0.720514 -0.216808 -0.321611 -0.720514 -0.181381 -0.499998 -0.588297 -0.396712 -0.321611 -0.645995 -0.551200 -0.321611 -0.527453 -0.612044 -0.499998 -0.157634 -0.669742 -0.321611 -0.372965 -0.744261 -0.321611 -0.193061 -0.744261 -0.321611 0.193061 -0.612044 -0.499998 0.157634 -0.669742 -0.321612 0.372965 -0.551200 -0.321612 0.527453 -0.181381 -0.499998 0.588297 -0.396712 -0.321612 0.645995 -0.216808 -0.321612 0.720514 0.169314 -0.321612 0.720514 0.133887 -0.499998 0.588297 0.349218 -0.321612 0.645995 0.503706 -0.321612 0.527453 0.622248 -0.321612 0.372966 0.564550 -0.499998 0.157634 0.696767 -0.321611 0.193061 0.808231 -0.113876 -0.000000 0.722184 -0.321611 -0.000000 0.779882 -0.113876 -0.215332 0.696767 -0.113876 -0.415989 0.392242 -0.113876 -0.720514 0.191585 -0.113876 -0.803629 -0.023747 -0.113876 -0.831978 -0.023747 -0.321611 -0.745931 -0.239079 -0.113876 -0.803629 -0.439736 -0.113876 -0.720514 -0.744261 -0.113876 -0.415989 -0.827376 -0.113876 -0.215332 -0.855725 -0.113876 -0.000000 -0.769678 -0.321611 -0.000000 -0.744261 -0.113876 0.415989 -0.439736 -0.113876 0.720514 -0.239079 -0.113876 0.803629 -0.023747 -0.113876 0.831978 -0.023747 -0.321612 0.745931 0.191585 -0.113876 0.803629 0.392242 -0.113876 0.720514 0.564550 -0.113876 0.588297 0.696767 -0.113876 0.415989 0.808231 0.109052 -0.222928 0.722184 0.109052 -0.430663 0.585303 0.109052 -0.609050 0.564550 -0.113876 -0.588297 0.406916 0.109052 -0.745931 -0.023747 0.109052 -0.861326 -0.454410 0.109052 -0.745931 -0.632797 0.109052 -0.609050 -0.612044 -0.113876 -0.588297 -0.769678 0.109052 -0.430663 -0.855725 0.109052 -0.222928 -0.855725 0.109052 0.222928 -0.827376 -0.113876 0.215332 -0.769678 0.109052 0.430663 -0.632797 0.109052 0.609050 -0.612044 -0.113876 0.588297 -0.454410 0.109052 0.745931 -0.246675 0.109052 0.831978 0.199181 0.109052 0.831978 0.406916 0.109052 0.745931 0.585303 0.109052 0.609050 0.722184 0.109052 0.430664 0.808231 0.109052 0.222928 0.779882 -0.113876 0.215332 0.779882 0.331980 -0.215331 0.837580 0.109052 0.000000 0.696767 0.331980 -0.415989 0.392242 0.331980 -0.720514 0.191585 0.331980 -0.803629 0.199181 0.109052 -0.831977 -0.239079 0.331980 -0.803629 -0.246675 0.109052 -0.831977 -0.439736 0.331980 -0.720514 -0.744261 0.331980 -0.415989 -0.827376 0.331980 -0.215332 -0.855725 0.331980 0.000000 -0.885074 0.109052 0.000000 -0.827376 0.331980 0.215332 -0.612044 0.331979 0.588297 -0.439736 0.331979 0.720514 -0.239079 0.331979 0.803629 -0.023747 0.331979 0.831978 -0.023747 0.109052 0.861327 0.191585 0.331979 0.803629 0.392242 0.331979 0.720514 0.564550 0.331979 0.588297 0.696767 0.331980 0.415989 0.808231 0.331980 0.000000 0.722184 0.539715 0.000000 0.622248 0.539715 -0.372965 0.503706 0.539715 -0.527452 0.564550 0.331980 -0.588297 0.349218 0.539715 -0.645995 -0.023747 0.331980 -0.831977 0.169314 0.539715 -0.720514 -0.216808 0.539715 -0.720514 -0.396712 0.539715 -0.645995 -0.612044 0.331980 -0.588297 -0.551200 0.539715 -0.527452 -0.669742 0.539715 -0.372965 -0.744261 0.539715 -0.193061 -0.744261 0.539715 0.193061 -0.744261 0.331980 0.415989 -0.551200 0.539715 0.527453 -0.396712 0.539715 0.645995 -0.216808 0.539715 0.720514 0.169314 0.539715 0.720514 0.349218 0.539715 0.645995 0.503706 0.539715 0.527453 0.696767 0.539715 0.193061 0.779882 0.331980 0.215332 0.564550 0.718102 -0.157633 0.696767 0.539715 -0.193061 0.503706 0.718102 -0.304525 0.280778 0.718102 -0.527452 0.133887 0.718102 -0.588297 -0.023747 0.718102 -0.609050 -0.023747 0.539715 -0.745931 -0.181381 0.718102 -0.588297 -0.454410 0.718102 -0.430663 -0.551200 0.718102 -0.304525 -0.612044 0.718102 -0.157634 -0.632797 0.718102 0.000000 -0.769678 0.539715 0.000000 -0.551200 0.718102 0.304525 -0.669742 0.539715 0.372966 -0.454410 0.718102 0.430663 -0.328272 0.718102 0.527453 -0.181381 0.718102 0.588297 -0.023747 0.718102 0.609050 -0.023747 0.539715 0.745931 0.133887 0.718102 0.588297 0.406916 0.718102 0.430664 0.503706 0.718102 0.304525 0.622248 0.539715 0.372966 0.585303 0.718102 0.000000 0.406916 0.854982 0.000000 0.392242 0.854982 -0.111464 0.280778 0.854982 -0.304525 0.406916 0.718102 -0.430663 0.087717 0.854983 -0.415989 -0.135211 0.854983 -0.415989 -0.328272 0.718102 -0.527452 -0.328272 0.854982 -0.304525 -0.439736 0.854982 -0.111464 -0.439736 0.854982 0.111464 -0.612044 0.718102 0.157634 -0.396712 0.854982 0.215332 -0.239079 0.854982 0.372966 -0.135211 0.854982 0.415989 0.087717 0.854982 0.415989 0.191585 0.854982 0.372966 0.280778 0.718102 0.527453 0.280778 0.854982 0.304525 0.392242 0.854982 0.111464 0.564550 0.718102 0.157634 0.191585 0.941030 -0.057698 0.349218 0.854982 -0.215331 0.133887 0.941030 -0.157633 0.087717 0.941030 -0.193061 0.191585 0.854983 -0.372965 -0.023747 0.854983 -0.430663 0.033951 0.941030 -0.215331 -0.081445 0.941030 -0.215331 -0.135211 0.941030 -0.193061 -0.239079 0.854983 -0.372965 -0.396712 0.854982 -0.215331 -0.181381 0.941030 -0.157633 -0.239079 0.941030 -0.057698 -0.454410 0.854982 0.000000 -0.239079 0.941030 0.057698 -0.181381 0.941030 0.157634 -0.328272 0.854982 0.304525 -0.135211 0.941030 0.193061 -0.081445 0.941030 0.215332 -0.023747 0.854982 0.430663 0.033951 0.941030 0.215332 0.133887 0.941030 0.157634 0.349218 0.854982 0.215332 0.191585 0.941030 0.057698 -0.023747 -0.752275 -0.000000 -0.023747 0.970378 0.000000 0.199181 0.941030 0.000000 0.169314 0.941030 -0.111464 -0.023747 0.941030 -0.222927 -0.216808 0.941030 -0.111464 -0.246675 0.941030 0.000000 -0.216808 0.941030 0.111464 -0.023747 0.941030 0.222928 0.087717 0.941030 0.193061 0.169314 0.941030 0.111464 "
							            />
							<TextureCoordinate point="0.7963 0.2164 0.8827 0.2074 0.8075 0.2312 0.8306 0.1556 0.7963 0.2164 0.7805 0.2044 0.7612 0.1959 0.8306 0.1556 0.7805 0.2044 0.7514 0.1305 0.7612 0.1959 0.7395 0.1914 0.7172 0.1914 0.7514 0.1305 0.7395 0.1914 0.6665 0.1390 0.7172 0.1914 0.6956 0.1958 0.6762 0.2043 0.6665 0.1390 0.6956 0.1958 0.5985 0.1786 0.6762 0.2043 0.6604 0.2163 0.6492 0.2311 0.5985 0.1786 0.6604 0.2163 0.5657 0.2389 0.6492 0.2311 0.6434 0.2475 0.6434 0.2646 0.5657 0.2389 0.6434 0.2475 0.5769 0.3036 0.6434 0.2646 0.6492 0.2810 0.6604 0.2958 0.5769 0.3036 0.6492 0.2810 0.6290 0.3554 0.6604 0.2958 0.6762 0.3078 0.6956 0.3164 0.6290 0.3554 0.6762 0.3078 0.7082 0.3804 0.6956 0.3164 0.7172 0.3208 0.7395 0.3208 0.7082 0.3804 0.7172 0.3208 0.7932 0.3720 0.7395 0.3208 0.7612 0.3164 0.7805 0.3079 0.7932 0.3720 0.7612 0.3164 0.8611 0.3323 0.7805 0.3079 0.7963 0.2959 0.8075 0.2811 0.8611 0.3323 0.7963 0.2959 0.8939 0.2721 0.8075 0.2811 0.8133 0.2647 0.8133 0.2477 0.8939 0.2721 0.8133 0.2647 0.8827 0.2074 0.8133 0.2477 0.8075 0.2312 0.8611 0.1788 0.9484 0.1864 0.8827 0.2074 0.8746 0.1132 0.8611 0.1788 0.8306 0.1556 0.8217 0.0898 0.8306 0.1556 0.7932 0.1391 0.7514 0.1305 0.8217 0.0898 0.7932 0.1391 0.7082 0.1305 0.7627 0.0778 0.7514 0.1305 0.6425 0.0897 0.7082 0.1305 0.6665 0.1390 0.6290 0.1554 0.6425 0.0897 0.6665 0.1390 0.5464 0.1458 0.6290 0.1554 0.5985 0.1786 0.5158 0.1861 0.5985 0.1786 0.5769 0.2071 0.5657 0.2389 0.5158 0.1861 0.5769 0.2071 0.5657 0.2718 0.5000 0.2310 0.5657 0.2389 0.5158 0.3225 0.5657 0.2718 0.5769 0.3036 0.5985 0.3321 0.5158 0.3225 0.5769 0.3036 0.5896 0.3958 0.5985 0.3321 0.6290 0.3554 0.6425 0.4191 0.6290 0.3554 0.6665 0.3719 0.7082 0.3804 0.6425 0.4191 0.6665 0.3719 0.7514 0.3805 0.7015 0.4312 0.7082 0.3804 0.8217 0.4192 0.7514 0.3805 0.7932 0.3720 0.8306 0.3556 0.8217 0.4192 0.7932 0.3720 0.9178 0.3631 0.8306 0.3556 0.8611 0.3323 0.9484 0.3229 0.8611 0.3323 0.8827 0.3038 0.8939 0.2721 0.9484 0.3229 0.8827 0.3038 0.8939 0.2392 0.9642 0.2779 0.8939 0.2721 0.9484 0.1864 0.8939 0.2392 0.8827 0.2074 0.9626 0.1204 0.9484 0.1864 0.9178 0.1461 0.9096 0.0801 0.9178 0.1461 0.8746 0.1132 0.8448 0.0515 0.8746 0.1132 0.8217 0.0898 0.7627 0.0778 0.8448 0.0515 0.8217 0.0898 0.7015 0.0777 0.7725 0.0367 0.7627 0.0778 0.6425 0.0897 0.6977 0.0367 0.7015 0.0777 0.5606 0.0798 0.6425 0.0897 0.5896 0.1129 0.3978 0.6170 0.4760 0.6085 0.4709 0.6414 0.3933 0.6664 0.4709 0.6414 0.4672 0.6817 0.4654 0.7267 0.3933 0.6664 0.4672 0.6817 0.4654 0.7733 0.3910 0.7215 0.4654 0.7267 0.4672 0.8182 0.3910 0.7785 0.4654 0.7733 0.3978 0.8829 0.4672 0.8182 0.4709 0.8585 0.4040 0.9232 0.4709 0.8585 0.4760 0.8914 0.6254 0.4548 0.5896 0.3958 0.6425 0.4191 0.7015 0.4312 0.6254 0.4548 0.6425 0.4191 0.7627 0.4312 0.6977 0.4696 0.7015 0.4312 0.8217 0.4192 0.7725 0.4696 0.7627 0.4312 0.9096 0.4265 0.8217 0.4192 0.8746 0.3960 0.9626 0.3862 0.8746 0.3960 0.9178 0.3631 1.0000 0.3369 0.9178 0.3631 0.9484 0.3229 0.5380 0.7785 0.4779 0.8182 0.4760 0.7733 0.4760 0.7267 0.5380 0.7785 0.4760 0.7733 0.4779 0.6817 0.5380 0.7215 0.4760 0.7267 0.5447 0.6170 0.6160 0.6568 0.5403 0.6664 0.5510 0.5767 0.6209 0.6017 0.5447 0.6170 0.8448 0.0515 0.9333 0.0586 0.9096 0.0801 0.7803 0.0102 0.8448 0.0515 0.7725 0.0367 0.6968 0.0102 0.7725 0.0367 0.6977 0.0367 0.6162 0.0265 0.6977 0.0367 0.6254 0.0514 0.4040 0.5767 0.3309 0.5249 0.4117 0.5482 0.3978 0.6170 0.3223 0.5567 0.4040 0.5767 0.3933 0.6664 0.3153 0.6017 0.3978 0.6170 0.3078 0.7182 0.3933 0.6664 0.3910 0.7215 0.3078 0.7818 0.3910 0.7215 0.3910 0.7785 0.3103 0.8432 0.3910 0.7785 0.3933 0.8336 0.3978 0.8829 0.3103 0.8432 0.3933 0.8336 0.3223 0.9432 0.3978 0.8829 0.4040 0.9232 0.4117 0.9517 0.3223 0.9432 0.4040 0.9232 0.6968 0.4930 0.6254 0.4548 0.6977 0.4696 0.7803 0.4931 0.6977 0.4696 0.7725 0.4696 0.8610 0.4767 0.7725 0.4696 0.8448 0.4549 0.5510 0.9232 0.6365 0.9750 0.5587 0.9517 0.5447 0.8829 0.6279 0.9432 0.5510 0.9232 0.5403 0.8336 0.6209 0.8983 0.5447 0.8829 0.5380 0.7785 0.6160 0.8432 0.5403 0.8336 0.5380 0.7215 0.6134 0.7818 0.5380 0.7785 0.6160 0.6568 0.5380 0.7215 0.5403 0.6664 0.7050 0.5965 0.6160 0.6568 0.6209 0.6017 0.7123 0.5499 0.6209 0.6017 0.6279 0.5567 0.7212 0.5170 0.6279 0.5567 0.6365 0.5249 0.6461 0.5085 0.7212 0.5170 0.6365 0.5249 0.6968 0.0102 0.7855 0.0001 0.7803 0.0102 0.2452 0.5170 0.3404 0.5085 0.3309 0.5249 0.3223 0.5567 0.2452 0.5170 0.3309 0.5249 0.2291 0.5965 0.3223 0.5567 0.3153 0.6017 0.2239 0.6535 0.3153 0.6017 0.3103 0.6568 0.3078 0.7182 0.2239 0.6535 0.3103 0.6568 0.3078 0.7818 0.2213 0.7171 0.3078 0.7182 0.3103 0.8432 0.2213 0.7829 0.3078 0.7818 0.2291 0.9035 0.3103 0.8432 0.3153 0.8983 0.2363 0.9500 0.3153 0.8983 0.3223 0.9432 0.2452 0.9830 0.3223 0.9432 0.3309 0.9750 0.3404 0.9915 0.2452 0.9830 0.3309 0.9750 0.7803 0.4931 0.6991 0.4999 0.6968 0.4930 0.6365 0.9750 0.7311 1.0000 0.6461 0.9915 0.7123 0.9500 0.6365 0.9750 0.6279 0.9432 0.7050 0.9035 0.6279 0.9432 0.6209 0.8983 0.6999 0.8465 0.6209 0.8983 0.6160 0.8432 0.6973 0.7829 0.6160 0.8432 0.6134 0.7818 0.6973 0.7171 0.6134 0.7818 0.6134 0.7182 0.6160 0.6568 0.6973 0.7171 0.6134 0.7182 0.7913 0.6017 0.6999 0.6535 0.7050 0.5965 0.7983 0.5567 0.7050 0.5965 0.7123 0.5499 0.7212 0.5170 0.7983 0.5567 0.7123 0.5499 0.8164 0.5085 0.7212 0.5170 0.7311 0.5000 0.2803 0.0102 0.1991 0.0000 0.2855 0.0001 0.2452 0.5170 0.1701 0.5085 0.2551 0.5000 0.1520 0.5567 0.2452 0.5170 0.2363 0.5499 0.2291 0.5965 0.1520 0.5567 0.2363 0.5499 0.2239 0.6535 0.1450 0.6017 0.2291 0.5965 0.1374 0.7182 0.2239 0.6535 0.2213 0.7171 0.1374 0.7818 0.2213 0.7171 0.2213 0.7829 0.1400 0.8432 0.2213 0.7829 0.2239 0.8465 0.2291 0.9035 0.1400 0.8432 0.2239 0.8465 0.2363 0.9500 0.1450 0.8983 0.2291 0.9035 0.1605 0.9750 0.2363 0.9500 0.2452 0.9830 0.1701 0.9915 0.2452 0.9830 0.2551 1.0000 0.1968 0.4930 0.2855 0.5000 0.1991 0.4999 0.8069 0.9750 0.7311 1.0000 0.7212 0.9830 0.7983 0.9432 0.7212 0.9830 0.7123 0.9500 0.7050 0.9035 0.7983 0.9432 0.7123 0.9500 0.6999 0.8465 0.7913 0.8983 0.7050 0.9035 0.6973 0.7829 0.7863 0.8432 0.6999 0.8465 0.6973 0.7171 0.7838 0.7818 0.6973 0.7829 0.7863 0.6568 0.6973 0.7171 0.6999 0.6535 0.7913 0.6017 0.8693 0.6664 0.7863 0.6568 0.8800 0.5767 0.7913 0.6017 0.7983 0.5567 0.8877 0.5482 0.7983 0.5567 0.8069 0.5249 0.1977 0.0367 0.1162 0.0265 0.1968 0.0102 0.2803 0.0102 0.1977 0.0367 0.1968 0.0102 0.3610 0.0268 0.2725 0.0367 0.2803 0.0102 0.4096 0.0801 0.3610 0.0268 0.4333 0.0586 0.0687 0.6170 0.1520 0.5567 0.1450 0.6017 0.1400 0.6568 0.0687 0.6170 0.1450 0.6017 0.1374 0.7182 0.0643 0.6664 0.1400 0.6568 0.1374 0.7818 0.0620 0.7215 0.1374 0.7182 0.1400 0.8432 0.0620 0.7785 0.1374 0.7818 0.0687 0.8829 0.1400 0.8432 0.1450 0.8983 0.1520 0.9432 0.0687 0.8829 0.1450 0.8983 0.0827 0.9517 0.1520 0.9432 0.1605 0.9750 0.2803 0.4931 0.3448 0.4549 0.3610 0.4767 0.1968 0.4930 0.2725 0.4696 0.2803 0.4931 0.1162 0.4765 0.1977 0.4696 0.1968 0.4930 0.8800 0.9232 0.8069 0.9750 0.7983 0.9432 0.8738 0.8829 0.7983 0.9432 0.7913 0.8983 0.8693 0.8336 0.7913 0.8983 0.7863 0.8432 0.7838 0.7818 0.8693 0.8336 0.7863 0.8432 0.8670 0.7215 0.7838 0.7818 0.7838 0.7182 0.7863 0.6568 0.8670 0.7215 0.7838 0.7182 0.9469 0.6414 0.8693 0.6664 0.8738 0.6170 0.9520 0.6085 0.8738 0.6170 0.8800 0.5767 0.1254 0.0514 0.0896 0.1129 0.0606 0.0798 0.2015 0.0777 0.1254 0.0514 0.1977 0.0367 0.2627 0.0778 0.1977 0.0367 0.2725 0.0367 0.3217 0.0898 0.2725 0.0367 0.3448 0.0515 0.4096 0.0801 0.3217 0.0898 0.3448 0.0515 0.4626 0.1204 0.3746 0.1132 0.4096 0.0801 0.4484 0.1864 0.4626 0.1204 0.5000 0.1698 0.0000 0.7267 0.0643 0.6664 0.0620 0.7215 0.0000 0.7733 0.0620 0.7215 0.0620 0.7785 0.0019 0.8182 0.0620 0.7785 0.0643 0.8336 0.4626 0.3862 0.4484 0.3229 0.5000 0.3369 0.3746 0.3960 0.4626 0.3862 0.4096 0.4265 0.3217 0.4192 0.4096 0.4265 0.3448 0.4549 0.2627 0.4312 0.3448 0.4549 0.2725 0.4696 0.2015 0.4312 0.2725 0.4696 0.1977 0.4696 0.1425 0.4191 0.1977 0.4696 0.1254 0.4548 0.0606 0.4262 0.1425 0.4191 0.1254 0.4548 0.8738 0.8829 0.9520 0.8914 0.8800 0.9232 0.9432 0.8182 0.8738 0.8829 0.8693 0.8336 0.9414 0.7733 0.8693 0.8336 0.8670 0.7785 0.8670 0.7215 0.9414 0.7733 0.8670 0.7785 0.9432 0.6817 0.8670 0.7215 0.8693 0.6664 0.0464 0.1458 0.0769 0.2071 0.0158 0.1861 0.0896 0.1129 0.0985 0.1786 0.0464 0.1458 0.1665 0.1390 0.0896 0.1129 0.1425 0.0897 0.2015 0.0777 0.1665 0.1390 0.1425 0.0897 0.2514 0.1305 0.2015 0.0777 0.2627 0.0778 0.3217 0.0898 0.2514 0.1305 0.2627 0.0778 0.3306 0.1556 0.3217 0.0898 0.3746 0.1132 0.4178 0.1461 0.3306 0.1556 0.3746 0.1132 0.3827 0.2074 0.4178 0.1461 0.4484 0.1864 0.4642 0.2314 0.3827 0.2074 0.4484 0.1864 0.3939 0.2721 0.4642 0.2314 0.4642 0.2779 0.4484 0.3229 0.3939 0.2721 0.4642 0.2779 0.3611 0.3323 0.4484 0.3229 0.4178 0.3631 0.3746 0.3960 0.3611 0.3323 0.4178 0.3631 0.3217 0.4192 0.3306 0.3556 0.3746 0.3960 0.2514 0.3805 0.3217 0.4192 0.2627 0.4312 0.2015 0.4312 0.2514 0.3805 0.2627 0.4312 0.1425 0.4191 0.2082 0.3804 0.2015 0.4312 0.1290 0.3554 0.1425 0.4191 0.0896 0.3958 0.0985 0.3321 0.0896 0.3958 0.0464 0.3628 0.0158 0.3225 0.0985 0.3321 0.0464 0.3628 0.0000 0.2775 0.0769 0.3036 0.0158 0.3225 0.0657 0.2389 0.0000 0.2775 0.0000 0.2310 0.0158 0.1861 0.0657 0.2389 0.0000 0.2310 0.1604 0.2163 0.0769 0.2071 0.0985 0.1786 0.1290 0.1554 0.1604 0.2163 0.0985 0.1786 0.1956 0.1958 0.1290 0.1554 0.1665 0.1390 0.2172 0.1914 0.1665 0.1390 0.2082 0.1305 0.2514 0.1305 0.2172 0.1914 0.2082 0.1305 0.2932 0.1391 0.2395 0.1914 0.2514 0.1305 0.2805 0.2044 0.2932 0.1391 0.3306 0.1556 0.2963 0.2164 0.3306 0.1556 0.3611 0.1788 0.3827 0.2074 0.2963 0.2164 0.3611 0.1788 0.3939 0.2392 0.3075 0.2312 0.3827 0.2074 0.3133 0.2647 0.3939 0.2392 0.3939 0.2721 0.3827 0.3038 0.3133 0.2647 0.3939 0.2721 0.2963 0.2959 0.3827 0.3038 0.3611 0.3323 0.3306 0.3556 0.2963 0.2959 0.3611 0.3323 0.2612 0.3164 0.3306 0.3556 0.2932 0.3720 0.2395 0.3208 0.2932 0.3720 0.2514 0.3805 0.2172 0.3208 0.2514 0.3805 0.2082 0.3804 0.1665 0.3719 0.2172 0.3208 0.2082 0.3804 0.1762 0.3078 0.1665 0.3719 0.1290 0.3554 0.0985 0.3321 0.1762 0.3078 0.1290 0.3554 0.1492 0.2810 0.0985 0.3321 0.0769 0.3036 0.0657 0.2718 0.1492 0.2810 0.0769 0.3036 0.1434 0.2475 0.0657 0.2718 0.0657 0.2389 0.0769 0.2071 0.1434 0.2475 0.0657 0.2389 0.7963 0.2164 0.8075 0.2312 0.7279 0.2563 0.2279 0.2563 0.1492 0.2311 0.1604 0.2163 0.7805 0.2044 0.7963 0.2164 0.7279 0.2563 0.2279 0.2563 0.1604 0.2163 0.1762 0.2043 0.7612 0.1959 0.7805 0.2044 0.7279 0.2563 0.2279 0.2563 0.1762 0.2043 0.1956 0.1958 0.7395 0.1914 0.7612 0.1959 0.7279 0.2563 0.2279 0.2563 0.1956 0.1958 0.2172 0.1914 0.7172 0.1914 0.7395 0.1914 0.7279 0.2563 0.2279 0.2563 0.2172 0.1914 0.2395 0.1914 0.6956 0.1958 0.7172 0.1914 0.7279 0.2563 0.2279 0.2563 0.2395 0.1914 0.2612 0.1959 0.6762 0.2043 0.6956 0.1958 0.7279 0.2563 0.2279 0.2563 0.2612 0.1959 0.2805 0.2044 0.6604 0.2163 0.6762 0.2043 0.7279 0.2563 0.2279 0.2563 0.2805 0.2044 0.2963 0.2164 0.6492 0.2311 0.6604 0.2163 0.7279 0.2563 0.2279 0.2563 0.2963 0.2164 0.3075 0.2312 0.6434 0.2475 0.6492 0.2311 0.7279 0.2563 0.2279 0.2563 0.3075 0.2312 0.3133 0.2477 0.6434 0.2646 0.6434 0.2475 0.7279 0.2563 0.2279 0.2563 0.3133 0.2477 0.3133 0.2647 0.6492 0.2810 0.6434 0.2646 0.7279 0.2563 0.2279 0.2563 0.3133 0.2647 0.3075 0.2811 0.6604 0.2958 0.6492 0.2810 0.7279 0.2563 0.2279 0.2563 0.3075 0.2811 0.2963 0.2959 0.6762 0.3078 0.6604 0.2958 0.7279 0.2563 0.2279 0.2563 0.2963 0.2959 0.2805 0.3079 0.6956 0.3164 0.6762 0.3078 0.7279 0.2563 0.2279 0.2563 0.2805 0.3079 0.2612 0.3164 0.7172 0.3208 0.6956 0.3164 0.7279 0.2563 0.2279 0.2563 0.2612 0.3164 0.2395 0.3208 0.7395 0.3208 0.7172 0.3208 0.7279 0.2563 0.2279 0.2563 0.2395 0.3208 0.2172 0.3208 0.7612 0.3164 0.7395 0.3208 0.7279 0.2563 0.2279 0.2563 0.2172 0.3208 0.1956 0.3164 0.7805 0.3079 0.7612 0.3164 0.7279 0.2563 0.2279 0.2563 0.1956 0.3164 0.1762 0.3078 0.7963 0.2959 0.7805 0.3079 0.7279 0.2563 0.2279 0.2563 0.1762 0.3078 0.1604 0.2958 0.8075 0.2811 0.7963 0.2959 0.7279 0.2563 0.2279 0.2563 0.1604 0.2958 0.1492 0.2810 0.8133 0.2647 0.8075 0.2811 0.7279 0.2563 0.2279 0.2563 0.1492 0.2810 0.1434 0.2646 0.8133 0.2477 0.8133 0.2647 0.7279 0.2563 0.2279 0.2563 0.1434 0.2646 0.1434 0.2475 0.8075 0.2312 0.8133 0.2477 0.7279 0.2563 0.2279 0.2563 0.1434 0.2475 0.1492 0.2311 0.7963 0.2164 0.8611 0.1788 0.8827 0.2074 0.8306 0.1556 0.8611 0.1788 0.7963 0.2164 0.7612 0.1959 0.7932 0.1391 0.8306 0.1556 0.7514 0.1305 0.7932 0.1391 0.7612 0.1959 0.7172 0.1914 0.7082 0.1305 0.7514 0.1305 0.6665 0.1390 0.7082 0.1305 0.7172 0.1914 0.6762 0.2043 0.6290 0.1554 0.6665 0.1390 0.5985 0.1786 0.6290 0.1554 0.6762 0.2043 0.6492 0.2311 0.5769 0.2071 0.5985 0.1786 0.5657 0.2389 0.5769 0.2071 0.6492 0.2311 0.6434 0.2646 0.5657 0.2718 0.5657 0.2389 0.5769 0.3036 0.5657 0.2718 0.6434 0.2646 0.6604 0.2958 0.5985 0.3321 0.5769 0.3036 0.6290 0.3554 0.5985 0.3321 0.6604 0.2958 0.6956 0.3164 0.6665 0.3719 0.6290 0.3554 0.7082 0.3804 0.6665 0.3719 0.6956 0.3164 0.7395 0.3208 0.7514 0.3805 0.7082 0.3804 0.7932 0.3720 0.7514 0.3805 0.7395 0.3208 0.7805 0.3079 0.8306 0.3556 0.7932 0.3720 0.8611 0.3323 0.8306 0.3556 0.7805 0.3079 0.8075 0.2811 0.8827 0.3038 0.8611 0.3323 0.8939 0.2721 0.8827 0.3038 0.8075 0.2811 0.8133 0.2477 0.8939 0.2392 0.8939 0.2721 0.8827 0.2074 0.8939 0.2392 0.8133 0.2477 0.8611 0.1788 0.9178 0.1461 0.9484 0.1864 0.8746 0.1132 0.9178 0.1461 0.8611 0.1788 0.8217 0.0898 0.8746 0.1132 0.8306 0.1556 0.7514 0.1305 0.7627 0.0778 0.8217 0.0898 0.7082 0.1305 0.7015 0.0777 0.7627 0.0778 0.6425 0.0897 0.7015 0.0777 0.7082 0.1305 0.6290 0.1554 0.5896 0.1129 0.6425 0.0897 0.5464 0.1458 0.5896 0.1129 0.6290 0.1554 0.5158 0.1861 0.5464 0.1458 0.5985 0.1786 0.5657 0.2389 0.5000 0.2310 0.5158 0.1861 0.5657 0.2718 0.5000 0.2775 0.5000 0.2310 0.5158 0.3225 0.5000 0.2775 0.5657 0.2718 0.5985 0.3321 0.5464 0.3628 0.5158 0.3225 0.5896 0.3958 0.5464 0.3628 0.5985 0.3321 0.6425 0.4191 0.5896 0.3958 0.6290 0.3554 0.7082 0.3804 0.7015 0.4312 0.6425 0.4191 0.7514 0.3805 0.7627 0.4312 0.7015 0.4312 0.8217 0.4192 0.7627 0.4312 0.7514 0.3805 0.8306 0.3556 0.8746 0.3960 0.8217 0.4192 0.9178 0.3631 0.8746 0.3960 0.8306 0.3556 0.9484 0.3229 0.9178 0.3631 0.8611 0.3323 0.8939 0.2721 0.9642 0.2779 0.9484 0.3229 0.8939 0.2392 0.9642 0.2314 0.9642 0.2779 0.9484 0.1864 0.9642 0.2314 0.8939 0.2392 0.9626 0.1204 1.0000 0.1698 0.9484 0.1864 0.9096 0.0801 0.9626 0.1204 0.9178 0.1461 0.8448 0.0515 0.9096 0.0801 0.8746 0.1132 0.7627 0.0778 0.7725 0.0367 0.8448 0.0515 0.7015 0.0777 0.6977 0.0367 0.7725 0.0367 0.6425 0.0897 0.6254 0.0514 0.6977 0.0367 0.5606 0.0798 0.6254 0.0514 0.6425 0.0897 0.3978 0.6170 0.4040 0.5767 0.4760 0.6085 0.3933 0.6664 0.3978 0.6170 0.4709 0.6414 0.4654 0.7267 0.3910 0.7215 0.3933 0.6664 0.4654 0.7733 0.3910 0.7785 0.3910 0.7215 0.4672 0.8182 0.3933 0.8336 0.3910 0.7785 0.3978 0.8829 0.3933 0.8336 0.4672 0.8182 0.4040 0.9232 0.3978 0.8829 0.4709 0.8585 0.6254 0.4548 0.5606 0.4262 0.5896 0.3958 0.7015 0.4312 0.6977 0.4696 0.6254 0.4548 0.7627 0.4312 0.7725 0.4696 0.6977 0.4696 0.8217 0.4192 0.8448 0.4549 0.7725 0.4696 0.9096 0.4265 0.8448 0.4549 0.8217 0.4192 0.9626 0.3862 0.9096 0.4265 0.8746 0.3960 1.0000 0.3369 0.9626 0.3862 0.9178 0.3631 0.5380 0.7785 0.5403 0.8336 0.4779 0.8182 0.4760 0.7267 0.5380 0.7215 0.5380 0.7785 0.4779 0.6817 0.5403 0.6664 0.5380 0.7215 0.5447 0.6170 0.6209 0.6017 0.6160 0.6568 0.5510 0.5767 0.6279 0.5567 0.6209 0.6017 0.8448 0.0515 0.8610 0.0267 0.9333 0.0586 0.7803 0.0102 0.8610 0.0267 0.8448 0.0515 0.6968 0.0102 0.7803 0.0102 0.7725 0.0367 0.6162 0.0265 0.6968 0.0102 0.6977 0.0367 0.4040 0.5767 0.3223 0.5567 0.3309 0.5249 0.3978 0.6170 0.3153 0.6017 0.3223 0.5567 0.3933 0.6664 0.3103 0.6568 0.3153 0.6017 0.3078 0.7182 0.3103 0.6568 0.3933 0.6664 0.3078 0.7818 0.3078 0.7182 0.3910 0.7215 0.3103 0.8432 0.3078 0.7818 0.3910 0.7785 0.3978 0.8829 0.3153 0.8983 0.3103 0.8432 0.3223 0.9432 0.3153 0.8983 0.3978 0.8829 0.4117 0.9517 0.3309 0.9750 0.3223 0.9432 0.6968 0.4930 0.6162 0.4765 0.6254 0.4548 0.7803 0.4931 0.6968 0.4930 0.6977 0.4696 0.8610 0.4767 0.7803 0.4931 0.7725 0.4696 0.5510 0.9232 0.6279 0.9432 0.6365 0.9750 0.5447 0.8829 0.6209 0.8983 0.6279 0.9432 0.5403 0.8336 0.6160 0.8432 0.6209 0.8983 0.5380 0.7785 0.6134 0.7818 0.6160 0.8432 0.5380 0.7215 0.6134 0.7182 0.6134 0.7818 0.6160 0.6568 0.6134 0.7182 0.5380 0.7215 0.7050 0.5965 0.6999 0.6535 0.6160 0.6568 0.7123 0.5499 0.7050 0.5965 0.6209 0.6017 0.7212 0.5170 0.7123 0.5499 0.6279 0.5567 0.6461 0.5085 0.7311 0.5000 0.7212 0.5170 0.6968 0.0102 0.6991 0.0000 0.7855 0.0001 0.2452 0.5170 0.2551 0.5000 0.3404 0.5085 0.3223 0.5567 0.2363 0.5499 0.2452 0.5170 0.2291 0.5965 0.2363 0.5499 0.3223 0.5567 0.2239 0.6535 0.2291 0.5965 0.3153 0.6017 0.3078 0.7182 0.2213 0.7171 0.2239 0.6535 0.3078 0.7818 0.2213 0.7829 0.2213 0.7171 0.3103 0.8432 0.2239 0.8465 0.2213 0.7829 0.2291 0.9035 0.2239 0.8465 0.3103 0.8432 0.2363 0.9500 0.2291 0.9035 0.3153 0.8983 0.2452 0.9830 0.2363 0.9500 0.3223 0.9432 0.3404 0.9915 0.2551 1.0000 0.2452 0.9830 0.7803 0.4931 0.7855 0.5000 0.6991 0.4999 0.6365 0.9750 0.7212 0.9830 0.7311 1.0000 0.7123 0.9500 0.7212 0.9830 0.6365 0.9750 0.7050 0.9035 0.7123 0.9500 0.6279 0.9432 0.6999 0.8465 0.7050 0.9035 0.6209 0.8983 0.6973 0.7829 0.6999 0.8465 0.6160 0.8432 0.6973 0.7171 0.6973 0.7829 0.6134 0.7818 0.6160 0.6568 0.6999 0.6535 0.6973 0.7171 0.7913 0.6017 0.7863 0.6568 0.6999 0.6535 0.7983 0.5567 0.7913 0.6017 0.7050 0.5965 0.7212 0.5170 0.8069 0.5249 0.7983 0.5567 0.8164 0.5085 0.8069 0.5249 0.7212 0.5170 0.2803 0.0102 0.1968 0.0102 0.1991 0.0000 0.2452 0.5170 0.1605 0.5249 0.1701 0.5085 0.1520 0.5567 0.1605 0.5249 0.2452 0.5170 0.2291 0.5965 0.1450 0.6017 0.1520 0.5567 0.2239 0.6535 0.1400 0.6568 0.1450 0.6017 0.1374 0.7182 0.1400 0.6568 0.2239 0.6535 0.1374 0.7818 0.1374 0.7182 0.2213 0.7171 0.1400 0.8432 0.1374 0.7818 0.2213 0.7829 0.2291 0.9035 0.1450 0.8983 0.1400 0.8432 0.2363 0.9500 0.1520 0.9432 0.1450 0.8983 0.1605 0.9750 0.1520 0.9432 0.2363 0.9500 0.1701 0.9915 0.1605 0.9750 0.2452 0.9830 0.1968 0.4930 0.2803 0.4931 0.2855 0.5000 0.8069 0.9750 0.8164 0.9915 0.7311 1.0000 0.7983 0.9432 0.8069 0.9750 0.7212 0.9830 0.7050 0.9035 0.7913 0.8983 0.7983 0.9432 0.6999 0.8465 0.7863 0.8432 0.7913 0.8983 0.6973 0.7829 0.7838 0.7818 0.7863 0.8432 0.6973 0.7171 0.7838 0.7182 0.7838 0.7818 0.7863 0.6568 0.7838 0.7182 0.6973 0.7171 0.7913 0.6017 0.8738 0.6170 0.8693 0.6664 0.8800 0.5767 0.8738 0.6170 0.7913 0.6017 0.8877 0.5482 0.8800 0.5767 0.7983 0.5567 0.1977 0.0367 0.1254 0.0514 0.1162 0.0265 0.2803 0.0102 0.2725 0.0367 0.1977 0.0367 0.3610 0.0268 0.3448 0.0515 0.2725 0.0367 0.4096 0.0801 0.3448 0.0515 0.3610 0.0268 0.0687 0.6170 0.0750 0.5767 0.1520 0.5567 0.1400 0.6568 0.0643 0.6664 0.0687 0.6170 0.1374 0.7182 0.0620 0.7215 0.0643 0.6664 0.1374 0.7818 0.0620 0.7785 0.0620 0.7215 0.1400 0.8432 0.0643 0.8336 0.0620 0.7785 0.0687 0.8829 0.0643 0.8336 0.1400 0.8432 0.1520 0.9432 0.0750 0.9232 0.0687 0.8829 0.0827 0.9517 0.0750 0.9232 0.1520 0.9432 0.2803 0.4931 0.2725 0.4696 0.3448 0.4549 0.1968 0.4930 0.1977 0.4696 0.2725 0.4696 0.1162 0.4765 0.1254 0.4548 0.1977 0.4696 0.8800 0.9232 0.8877 0.9517 0.8069 0.9750 0.8738 0.8829 0.8800 0.9232 0.7983 0.9432 0.8693 0.8336 0.8738 0.8829 0.7913 0.8983 0.7838 0.7818 0.8670 0.7785 0.8693 0.8336 0.8670 0.7215 0.8670 0.7785 0.7838 0.7818 0.7863 0.6568 0.8693 0.6664 0.8670 0.7215 0.9469 0.6414 0.9432 0.6817 0.8693 0.6664 0.9520 0.6085 0.9469 0.6414 0.8738 0.6170 0.1254 0.0514 0.1425 0.0897 0.0896 0.1129 0.2015 0.0777 0.1425 0.0897 0.1254 0.0514 0.2627 0.0778 0.2015 0.0777 0.1977 0.0367 0.3217 0.0898 0.2627 0.0778 0.2725 0.0367 0.4096 0.0801 0.3746 0.1132 0.3217 0.0898 0.4626 0.1204 0.4178 0.1461 0.3746 0.1132 0.4484 0.1864 0.4178 0.1461 0.4626 0.1204 0.0000 0.7267 0.0019 0.6817 0.0643 0.6664 0.0000 0.7733 0.0000 0.7267 0.0620 0.7215 0.0019 0.8182 0.0000 0.7733 0.0620 0.7785 0.4626 0.3862 0.4178 0.3631 0.4484 0.3229 0.3746 0.3960 0.4178 0.3631 0.4626 0.3862 0.3217 0.4192 0.3746 0.3960 0.4096 0.4265 0.2627 0.4312 0.3217 0.4192 0.3448 0.4549 0.2015 0.4312 0.2627 0.4312 0.2725 0.4696 0.1425 0.4191 0.2015 0.4312 0.1977 0.4696 0.0606 0.4262 0.0896 0.3958 0.1425 0.4191 0.8738 0.8829 0.9469 0.8585 0.9520 0.8914 0.9432 0.8182 0.9469 0.8585 0.8738 0.8829 0.9414 0.7733 0.9432 0.8182 0.8693 0.8336 0.8670 0.7215 0.9414 0.7267 0.9414 0.7733 0.9432 0.6817 0.9414 0.7267 0.8670 0.7215 0.0464 0.1458 0.0985 0.1786 0.0769 0.2071 0.0896 0.1129 0.1290 0.1554 0.0985 0.1786 0.1665 0.1390 0.1290 0.1554 0.0896 0.1129 0.2015 0.0777 0.2082 0.1305 0.1665 0.1390 0.2514 0.1305 0.2082 0.1305 0.2015 0.0777 0.3217 0.0898 0.2932 0.1391 0.2514 0.1305 0.3306 0.1556 0.2932 0.1391 0.3217 0.0898 0.4178 0.1461 0.3611 0.1788 0.3306 0.1556 0.3827 0.2074 0.3611 0.1788 0.4178 0.1461 0.4642 0.2314 0.3939 0.2392 0.3827 0.2074 0.3939 0.2721 0.3939 0.2392 0.4642 0.2314 0.4484 0.3229 0.3827 0.3038 0.3939 0.2721 0.3611 0.3323 0.3827 0.3038 0.4484 0.3229 0.3746 0.3960 0.3306 0.3556 0.3611 0.3323 0.3217 0.4192 0.2932 0.3720 0.3306 0.3556 0.2514 0.3805 0.2932 0.3720 0.3217 0.4192 0.2015 0.4312 0.2082 0.3804 0.2514 0.3805 0.1425 0.4191 0.1665 0.3719 0.2082 0.3804 0.1290 0.3554 0.1665 0.3719 0.1425 0.4191 0.0985 0.3321 0.1290 0.3554 0.0896 0.3958 0.0158 0.3225 0.0769 0.3036 0.0985 0.3321 0.0000 0.2775 0.0657 0.2718 0.0769 0.3036 0.0657 0.2389 0.0657 0.2718 0.0000 0.2775 0.0158 0.1861 0.0769 0.2071 0.0657 0.2389 0.1604 0.2163 0.1492 0.2311 0.0769 0.2071 0.1290 0.1554 0.1762 0.2043 0.1604 0.2163 0.1956 0.1958 0.1762 0.2043 0.1290 0.1554 0.2172 0.1914 0.1956 0.1958 0.1665 0.1390 0.2514 0.1305 0.2395 0.1914 0.2172 0.1914 0.2932 0.1391 0.2612 0.1959 0.2395 0.1914 0.2805 0.2044 0.2612 0.1959 0.2932 0.1391 0.2963 0.2164 0.2805 0.2044 0.3306 0.1556 0.3827 0.2074 0.3075 0.2312 0.2963 0.2164 0.3939 0.2392 0.3133 0.2477 0.3075 0.2312 0.3133 0.2647 0.3133 0.2477 0.3939 0.2392 0.3827 0.3038 0.3075 0.2811 0.3133 0.2647 0.2963 0.2959 0.3075 0.2811 0.3827 0.3038 0.3306 0.3556 0.2805 0.3079 0.2963 0.2959 0.2612 0.3164 0.2805 0.3079 0.3306 0.3556 0.2395 0.3208 0.2612 0.3164 0.2932 0.3720 0.2172 0.3208 0.2395 0.3208 0.2514 0.3805 0.1665 0.3719 0.1956 0.3164 0.2172 0.3208 0.1762 0.3078 0.1956 0.3164 0.1665 0.3719 0.0985 0.3321 0.1604 0.2958 0.1762 0.3078 0.1492 0.2810 0.1604 0.2958 0.0985 0.3321 0.0657 0.2718 0.1434 0.2646 0.1492 0.2810 0.1434 0.2475 0.1434 0.2646 0.0657 0.2718 0.0769 0.2071 0.1492 0.2311 0.1434 0.2475 " />
						</IndexedFaceSet>
					</Shape>
				</Group>
			</Transform>
		</Transform>
		<Transform DEF="Lamp_TRANSFORM"
		           translation="-4.076245 5.903862 1.005454"
		           scale="1.000000 1.000000 1.000000"
		           rotation="-0.498084 -0.762016 -0.413815 1.513875"
		           >
			<PointLight DEF="LA_Lamp"
			            ambientIntensity="0.0000"
			            color="1.0000 1.0000 1.0000"
			            intensity="0.5714"
			            radius="30.0000" 
			            location="-0.0000 -0.0000 0.0000"
			            />
		</Transform>
		<Transform DEF="Camera_TRANSFORM"
		           translation="-7.481132 5.343665 -6.507640"
		           scale="1.000000 1.000000 1.000000"
		           rotation="-0.098233 -0.968789 -0.227591 2.349487"
		           >
			<Viewpoint DEF="CA_Camera"
			           centerOfRotation="0 0 0"
			           position="-0.00 -0.00 0.00"
			           orientation="-0.00 -0.47 -0.88 0.00"
			           fieldOfView="0.858"
			           />
		</Transform>
	</Scene>
</X3D>